GE 461 Introduction to Data Science
…
Because we have small sample, BIC may return underfitted models, so use AIC. Or even better use cross-validation.

nfold <-  4
set.seed(1)
id_fold <- rep(1:4, len = nrow(events)) %>% sample()
events

## # A tibble: 81 x 12
##    month   day attend day_of_week opponent  temp skies day_night cap   shirt
##    <fct> <dbl>  <dbl> <fct>       <chr>    <dbl> <chr> <chr>     <chr> <chr>
##  1 APR      10  56000 Tuesday     Pirates     19 Clear Day       NO    NO   
##  2 APR      11  29729 Wednesday   Pirates     14 Clou Night     NO    NO   
##  3 APR      12  28328 Thursday    Pirates     14 Clou Night     NO    NO   
##  4 APR      13  31601 Friday      Padres      12 Clou Night     NO    NO   
##  5 APR      14  46549 Saturday    Padres      14 Clou Night     NO    NO   
##  6 APR      15  38359 Sunday      Padres      18 Clear Day       NO    NO   
##  7 APR      23  26376 Monday      Braves      16 Clou Night     NO    NO   
##  8 APR      24  44014 Tuesday     Braves      17 Clou Night     NO    NO   
##  9 APR      25  26345 Wednesday   Braves      18 Clou Night     NO    NO   
## 10 APR      27  44807 Friday      Nationa    19 Clear Night     NO    NO   
## #  with 71 more rows, and 2 more variables: fireworks <chr>, bobblehead <dbl>
…
